{
	"display_objects": 
	[
		{
			"name":"level10", 
			"filename": "assets/images/thumbnails/BG10.jpg", 
			"width": 400, 
			"height": 384,
			"xPos": 201,
			"yPos": 357,
			"type": "image",
		},
		{
			"name":"level11", 
			"filename": "assets/images/thumbnails/BG11.jpg", 
			"width": 400, 
			"height": 384,
			"xPos": 572,
			"yPos": 357,
			"type": "image",
		},
		{
			"name":"level12", 
			"filename": "assets/images/thumbnails/BG12.jpg", 
			"width": 400, 
			"height": 384,
			"xPos": 934,
			"yPos": 357,
			"type": "image",
		},
  		{
			"name":"10image", 
			"filename": "assets/images/level_numbers/HO2014_10.png", 
      "number":"10",
			"width": 217, 
			"height": 204,
			"xPos": 201,
			"yPos": 357,
			"type": "image",
		},
		{
			"name":"11image", 
			"filename": "assets/images/level_numbers/HO2014_11.png", 
			"width": 178, 
      "number":"11",
			"height": 202,
			"xPos": 572,
			"yPos": 357,
			"type": "image",
		},
		{
			"name":"12image", 
			"filename": "assets/images/level_numbers/HO2014_12.png", 
			"width": 218, 
			"height": 211,
      "number":"12",
			"xPos": 934,
			"yPos": 357,
			"type": "image",
		},
		{
			"name":"button_level10",  
			"width": 350, 
			"height": 380,
			"xPos": 201,
			"yPos": 357,
			"type": "rect_one_state_button",
			"dispatch":"level10_hit",
		}, 
		{
			"name":"button_level11",  
			"width": 350, 
			"height": 380,
			"xPos": 572,
			"yPos": 357,
			"type": "rect_one_state_button",
			"dispatch":"level11_hit",
		}, 
		{
			"name":"button_level12",  
			"width": 350, 
			"height": 380,
			"xPos": 934,
			"yPos": 357,
			"type": "rect_one_state_button",
			"dispatch":"level12_hit",
		}, 
		
   	]
}