{
	"display_objects": 
	[
  		
		{
			"name":"type_select", 
			"filename": "assets/images/menu/normal/sceneselect.png", 
			"width": 1136, 
			"height": 768,
			"xPos": 568,
			"yPos": 384,
			"type": "image"
		}, 
  		{
			"name":"home", 
			"filename": "assets/images/buttons/HO2014_GamePlayButtons_Home.png", 
			"width": 110, 
			"height": 110,
			"xPos": 1080,
			"yPos": 80,
			"type": "one_state_button",
			"dispatch":"home_hit",
		},
		{
			"name":"back", 
			"filename": "assets/images/buttons/back.png", 
			"width": 100, 
			"height": 100,
			"xPos": 45,
			"yPos": 80,
			"type": "one_state_button",
			"dispatch":"back_hit",
		}, 
		{
			"name":"button_picture",  
			"width": 290, 
			"height": 130,
			"xPos": 260,
			"yPos": 290,
			"type": "rect_one_state_button",
			"dispatch":"picture_hit",
		}, 
		{
			"name":"button_word",  
			"width": 290, 
			"height": 130,
			"xPos": 575,
			"yPos": 260,
			"type": "rect_one_state_button",
			"dispatch":"word_hit",
		}, 
		{
			"name":"button_collector",  
			"width": 290, 
			"height": 130,
			"xPos": 880,
			"yPos": 300,
			"type": "rect_one_state_button",
			"dispatch":"collector_hit",
		}, 
  		{
			"name":"button_left_arrow", 
			"filename": "assets/images/buttons/arrowleft.png", 
			"width": 90, 
			"height": 90,
			"xPos": 60,
			"yPos": 700,
			"type": "one_state_button",
			"dispatch":"page_left_hit",
		}, 
		{
			"name":"button_right_arrow", 
			"filename": "assets/images/buttons/arrowright.png", 
			"width": 90, 
			"height": 90,
			"xPos": 1080,
			"yPos": 700,
			"type": "one_state_button",
			"dispatch":"page_right_hit",
		},
		{
			"name":"banner_scene1", 
			"filename": "assets/images/banners/banner1.png", 
			"width": 400, 
			"height": 150,
			"xPos": 568,
			"yPos": 710,
			"type": "image"
		}, 
		{
			"name":"banner_scene2", 
			"filename": "assets/images/banners/banner2.png", 
			"width": 400, 
			"height": 150,
			"xPos": 568,
			"yPos": 710,
			"type": "image"
		}, 
		{
			"name":"banner_scene3", 
			"filename": "assets/images/banners/banner3.png", 
			"width": 400, 
			"height": 150,
			"xPos": 568,
			"yPos": 710,
			"type": "image"
		}, 
		{
			"name":"banner_scene4", 
			"filename": "assets/images/banners/banner4.png", 
			"width": 400, 
			"height": 150,
			"xPos": 568,
			"yPos": 710,
			"type": "image"
		}, 
		{
			"name":"banner_scene5", 
			"filename": "assets/images/banners/banner5.png", 
			"width": 400, 
			"height": 150,
			"xPos": 568,
			"yPos": 710,
			"type": "image"
		}, 
		{
			"name":"banner_scene6", 
			"filename": "assets/images/banners/banner6.png", 
			"width": 400, 
			"height": 150,
			"xPos": 568,
			"yPos": 710,
			"type": "image"
		}, 
		{
			"name":"banner_scene7", 
			"filename": "assets/images/banners/banner7.png", 
			"width": 400, 
			"height": 150,
			"xPos": 568,
			"yPos": 710,
			"type": "image"
		}, 
		{
			"name":"banner_scene8", 
			"filename": "assets/images/banners/banner8.png", 
			"width": 400, 
			"height": 150,
			"xPos": 568,
			"yPos": 710,
			"type": "image"
		}, 
   	]
}